{
  "levels": [
    {
      "name": "Niveau 1",
      "dimensions": [15, 12],
      "delay": 200,
      "walls": [
          [5,5], [5,6], [5,7], [5,8]
      ],
      "food": [
          [10,10]
      ],
      "snake": [
        [5,10],
        [5,9]
      ]
    },
    {
      "name": "Niveau 2",
      "dimensions": [20, 20],
      "delay": 150,
      "walls": [
          [5,5], [5,6], [5,7], [5,8], [10,9], [11,9]
      ],
      "food": [
          [9,10]
      ],
      "snake": [
        [10,7],
        [11,7]
      ]
    },
    {
      "name": "Niveau HARD",
      "dimensions": [20, 20],
      "delay": 80,
      "walls": [
          [5,5], [5,6], [5,7], [5,8], [10,9], [11,9], [1,8], [2,8], [15,2], [15,3]
      ],
      "food": [
          [10,15]
      ],
      "snake": [
        [2,10],
        [2,9]
      ]
    }
  ]
}